{
  "data": {
    "id": 9878907,
    "genres": [],
    "media_type": "media type",
    "online_date": "2020-01-01T10:00:00+00:00",
    "persons": [],
    "slug": "slug",
    "broadcasters": [],
    "tags": [],
    "categories": [],
    "title": "title",
    "av_type": "video",
    "sources": [],
    "classifications": [],
    "themes": [],
    "subtitles": []
  }
}
